%YAML 1.1
%TAG !u! tag:unity3d.com,2011:
--- !u!1001 &3936097379004466806
PrefabInstance:
  m_ObjectHideFlags: 0
  serializedVersion: 2
  m_Modification:
    m_TransformParent: {fileID: 0}
    m_Modifications:
    - target: {fileID: 4748407032437030371, guid: 55f7e2271ca537c4fb2e46ebd3b3f1e9,
        type: 3}
      propertyPath: m_Name
      value: Fighter (AI) 4
      objectReference: {fileID: 0}
    - target: {fileID: 4748407032437030370, guid: 55f7e2271ca537c4fb2e46ebd3b3f1e9,
        type: 3}
      propertyPath: m_LocalPosition.x
      value: 0
      objectReference: {fileID: 0}
    - target: {fileID: 4748407032437030370, guid: 55f7e2271ca537c4fb2e46ebd3b3f1e9,
        type: 3}
      propertyPath: m_LocalPosition.y
      value: 0
      objectReference: {fileID: 0}
    - target: {fileID: 4748407032437030370, guid: 55f7e2271ca537c4fb2e46ebd3b3f1e9,
        type: 3}
      propertyPath: m_LocalPosition.z
      value: 0
      objectReference: {fileID: 0}
    - target: {fileID: 4748407032437030370, guid: 55f7e2271ca537c4fb2e46ebd3b3f1e9,
        type: 3}
      propertyPath: m_LocalRotation.x
      value: 0
      objectReference: {fileID: 0}
    - target: {fileID: 4748407032437030370, guid: 55f7e2271ca537c4fb2e46ebd3b3f1e9,
        type: 3}
      propertyPath: m_LocalRotation.y
      value: 0
      objectReference: {fileID: 0}
    - target: {fileID: 4748407032437030370, guid: 55f7e2271ca537c4fb2e46ebd3b3f1e9,
        type: 3}
      propertyPath: m_LocalRotation.z
      value: 0
      objectReference: {fileID: 0}
    - target: {fileID: 4748407032437030370, guid: 55f7e2271ca537c4fb2e46ebd3b3f1e9,
        type: 3}
      propertyPath: m_LocalRotation.w
      value: 1
      objectReference: {fileID: 0}
    - target: {fileID: 4748407032437030370, guid: 55f7e2271ca537c4fb2e46ebd3b3f1e9,
        type: 3}
      propertyPath: m_RootOrder
      value: 0
      objectReference: {fileID: 0}
    - target: {fileID: 4748407032437030370, guid: 55f7e2271ca537c4fb2e46ebd3b3f1e9,
        type: 3}
      propertyPath: m_LocalEulerAnglesHint.x
      value: 0
      objectReference: {fileID: 0}
    - target: {fileID: 4748407032437030370, guid: 55f7e2271ca537c4fb2e46ebd3b3f1e9,
        type: 3}
      propertyPath: m_LocalEulerAnglesHint.y
      value: 0
      objectReference: {fileID: 0}
    - target: {fileID: 4748407032437030370, guid: 55f7e2271ca537c4fb2e46ebd3b3f1e9,
        type: 3}
      propertyPath: m_LocalEulerAnglesHint.z
      value: 0
      objectReference: {fileID: 0}
    - target: {fileID: 4748407032513435430, guid: 55f7e2271ca537c4fb2e46ebd3b3f1e9,
        type: 3}
      propertyPath: m_Color.g
      value: 0.5
      objectReference: {fileID: 0}
    - target: {fileID: 4748407032513435430, guid: 55f7e2271ca537c4fb2e46ebd3b3f1e9,
        type: 3}
      propertyPath: m_Color.b
      value: 0.5
      objectReference: {fileID: 0}
    - target: {fileID: 6006231205909300679, guid: 55f7e2271ca537c4fb2e46ebd3b3f1e9,
        type: 3}
      propertyPath: _slowWalkSpeed
      value: 0.95
      objectReference: {fileID: 0}
    - target: {fileID: 6006231205909300679, guid: 55f7e2271ca537c4fb2e46ebd3b3f1e9,
        type: 3}
      propertyPath: _speed
      value: 1.85
      objectReference: {fileID: 0}
    - target: {fileID: 9150271451503775852, guid: 55f7e2271ca537c4fb2e46ebd3b3f1e9,
        type: 3}
      propertyPath: _level
      value: 4
      objectReference: {fileID: 0}
    - target: {fileID: 8920188397146026634, guid: 55f7e2271ca537c4fb2e46ebd3b3f1e9,
        type: 3}
      propertyPath: _value
      value: 20
      objectReference: {fileID: 0}
    - target: {fileID: 8920188397146026634, guid: 55f7e2271ca537c4fb2e46ebd3b3f1e9,
        type: 3}
      propertyPath: _regen
      value: 4
      objectReference: {fileID: 0}
    - target: {fileID: 8920188397146026634, guid: 55f7e2271ca537c4fb2e46ebd3b3f1e9,
        type: 3}
      propertyPath: _regenDelay
      value: 0.5
      objectReference: {fileID: 0}
    - target: {fileID: 708745536287791294, guid: 55f7e2271ca537c4fb2e46ebd3b3f1e9,
        type: 3}
      propertyPath: _attackInterval
      value: 1.25
      objectReference: {fileID: 0}
    - target: {fileID: 708745536287791294, guid: 55f7e2271ca537c4fb2e46ebd3b3f1e9,
        type: 3}
      propertyPath: _decisionInterval
      value: 0.5
      objectReference: {fileID: 0}
    - target: {fileID: 2321458941339122094, guid: 55f7e2271ca537c4fb2e46ebd3b3f1e9,
        type: 3}
      propertyPath: _value
      value: 16
      objectReference: {fileID: 0}
    - target: {fileID: 2645471489498351579, guid: 55f7e2271ca537c4fb2e46ebd3b3f1e9,
        type: 3}
      propertyPath: _hitPoints
      value: 21
      objectReference: {fileID: 0}
    - target: {fileID: 4748407032002721567, guid: 55f7e2271ca537c4fb2e46ebd3b3f1e9,
        type: 3}
      propertyPath: m_Color.r
      value: 0.5
      objectReference: {fileID: 0}
    - target: {fileID: 4748407032377743514, guid: 55f7e2271ca537c4fb2e46ebd3b3f1e9,
        type: 3}
      propertyPath: m_Color.r
      value: 0.84
      objectReference: {fileID: 0}
    - target: {fileID: 4748407032377743514, guid: 55f7e2271ca537c4fb2e46ebd3b3f1e9,
        type: 3}
      propertyPath: m_Color.g
      value: 0.84
      objectReference: {fileID: 0}
    - target: {fileID: 4748407032377743514, guid: 55f7e2271ca537c4fb2e46ebd3b3f1e9,
        type: 3}
      propertyPath: m_Color.b
      value: 0.84
      objectReference: {fileID: 0}
    - target: {fileID: 1283222657305765675, guid: 55f7e2271ca537c4fb2e46ebd3b3f1e9,
        type: 3}
      propertyPath: _amount
      value: 6
      objectReference: {fileID: 0}
    m_RemovedComponents: []
  m_SourcePrefab: {fileID: 100100000, guid: 55f7e2271ca537c4fb2e46ebd3b3f1e9, type: 3}
